{"deployedBy":"Ussama Zubair","stage":"stg02","repo":"copilot-business-layer","commitId":"bfa0a093a60ab5a29d34077073d359dae5f78b31","commitTime":"2021-08-02T13:12:52+00:00","apiName":"offers","serviceName":null,"source":null,"branch":null,"tag":null,"status":"FAILED","client":"greatwall"}
{"deployedBy":"Ussama Zubair","stage":"stg02","repo":"copilot-business-layer","commitId":"bfa0a093a60ab5a29d34077073d359dae5f78b31","commitTime":"2021-08-02T13:12:52+00:00","apiName":"jobs","serviceName":null,"source":null,"branch":null,"tag":null,"status":"SUCCESS","client":"greatwall"}
{"deployedBy":"Ajay Srinivas","stage":"stg02","repo":"copilot-business-layer","commitId":"cc84a109b45fceb34de9cd6147e962b894ef5298","commitTime":"2021-08-02T12:26:19+00:00","apiName":"offers","serviceName":null,"source":null,"branch":null,"tag":null,"status":"FAILED","client":"greatwall"}
{"deployedBy":"Ajay Srinivas","stage":"stg02","repo":"copilot-business-layer","commitId":"fe4e20d5ce2b525bf316f2f67adc3121040aea9d","commitTime":"2021-08-02T08:54:59+00:00","apiName":"offers","serviceName":null,"source":null,"branch":null,"tag":null,"status":"FAILED","client":"greatwall"}
{"deployedBy":"ajay@fabric.inc","stage":"stg02","repo":"copilot-business-layer","commitId":"d510cd63d5fef474ed22b840eab03689155b67a4","commitTime":"2021-08-02T07:34:13+00:00","apiName":"offers","serviceName":null,"source":"branch","branch":"release/0.0.7","tag":null,"status":"FAILED","client":"greatwall"}
{"deployedBy":"rafid.saad@fabric.inc","stage":"stg02","repo":"copilot-business-layer","commitId":"5cf18290d5d37c84e466716801578940a508c016","commitTime":"2021-08-02T08:21:43+00:00","apiName":"copilotApi-xpm","serviceName":null,"source":"branch","branch":"master","tag":null,"status":"FAILED","client":"greatwall"}
{"deployedBy":"Ajay Srinivas","stage":"stg02","repo":"copilot-business-layer","commitId":"2e42ab3f9334d0fd3171cffa284354181e87a78e","commitTime":"2021-08-02T08:03:25+00:00","apiName":"offers","serviceName":null,"source":null,"branch":null,"tag":null,"status":"FAILED","client":"greatwall"}
{"deployedBy":"Ajay Srinivas","stage":"stg02","repo":"copilot-business-layer","commitId":"2e42ab3f9334d0fd3171cffa284354181e87a78e","commitTime":"2021-08-02T08:03:25+00:00","apiName":"offers","serviceName":null,"source":null,"branch":null,"tag":null,"status":"FAILED","client":"greatwall"}
{"deployedBy":"andres.umanzor@fabric.inc","stage":"stg02","repo":"copilot-business-layer","commitId":"ee3f1b4465ad581a90aba60a7b65aac85bebf7e8","commitTime":"2021-08-03T22:54:08+00:00","apiName":"jobs","serviceName":null,"source":"branch","branch":"master","tag":null,"status":"SUCCESS","client":"greatwall"}
{"deployedBy":"andres.umanzor@fabric.inc","stage":"stg02","repo":"copilot-business-layer","commitId":"d78d62ebf922ea2d62fac8e4e9a4c9458c4422de","commitTime":"2021-08-03T19:41:51+00:00","apiName":"jobs","serviceName":null,"source":"branch","branch":"feat/productGroupIdForVariants","tag":null,"status":"SUCCESS","client":"greatwall"}
{"deployedBy":"ameed.khalid@fabric.inc","stage":"stg02","repo":"copilot-business-layer","commitId":"42b8b58fb3611c74eeb60dc239d2ca6df01bf0e7","commitTime":"2021-08-03T18:57:53+00:00","apiName":"xpm","serviceName":null,"source":"branch","branch":"master","tag":null,"status":"FAILED","client":"greatwall"}
{"deployedBy":"david.alen@fabric.inc","stage":"stg02","repo":"copilot-business-layer","commitId":"7b8c37f2626de84cd3a32257fd7aabb51599a94d","commitTime":"2021-08-04T20:27:49+00:00","apiName":"xpm","serviceName":null,"source":"branch","branch":"master","tag":null,"status":"RUNNING","client":"bailey"}
{"deployedBy":"ameed.khalid@fabric.inc","stage":"stg02","repo":"copilot-business-layer","commitId":"ec3f558d8dfcb99d5b49cf855da6a9a6f9f499c1","commitTime":"2021-08-04T19:29:45+00:00","apiName":"xpm","serviceName":null,"source":"branch","branch":"master","tag":null,"status":"FAILED","client":"greatwall"}
{"deployedBy":"ameed.khalid@fabric.inc","stage":"stg02","repo":"copilot-business-layer","commitId":"0764f57ae16607d581396a4a3e75426d06f618b9","commitTime":"2021-08-04T19:13:59+00:00","apiName":"xpm","serviceName":null,"source":"branch","branch":"hotfix/XM-1674_Import-Hierarchy-Failure","tag":null,"status":"RUNNING","client":"greatwall"}
{"deployedBy":"ameed.khalid@fabric.inc","stage":"stg02","repo":"copilot-business-layer","commitId":"c232237ceb10ed2b6e2652042dab34145c364497","commitTime":"2021-08-04T17:29:00+00:00","apiName":"xpm","serviceName":null,"source":"branch","branch":"hotfix/XM-1674_Import-Hierarchy-Failure","tag":null,"status":"FAILED","client":"greatwall"}
{"deployedBy":"Ajay Srinivas","stage":"stg02","repo":"copilot-business-layer","commitId":"1063f5c4faa8894064a1a73c0e4ae5dd6c7dfd9b","commitTime":"2021-08-04T06:48:54+00:00","apiName":"offers","serviceName":null,"source":null,"branch":null,"tag":null,"status":"FAILED","client":"greatwall"}
{"deployedBy":"ashwani@fabric.inc","stage":"stg02","repo":"copilot-business-layer","commitId":"028d1d51fe2177b4f9cff03d574293de034ad04c","commitTime":"2021-08-04T00:07:31+00:00","apiName":"xpm","serviceName":null,"source":"branch","branch":"master","tag":null,"status":"FAILED","client":"greatwall"}
{"deployedBy":"Safder Qasim","stage":"stg02","repo":"copilot-business-layer","commitId":"73baa70c8abe670095a93b5f8265ee6ad77d1ad2","commitTime":"2021-08-05T18:31:04+00:00","apiName":"offers","serviceName":null,"source":null,"branch":null,"tag":null,"status":"FAILED","client":"greatwall"}
{"deployedBy":"Syed Salman Hyder","stage":"stg02","repo":"copilot-business-layer","commitId":"73baa70c8abe670095a93b5f8265ee6ad77d1ad2","commitTime":"2021-08-05T18:31:04+00:00","apiName":"offers","serviceName":null,"source":null,"branch":null,"tag":null,"status":"FAILED","client":"greatwall"}
{"deployedBy":"Syed Salman Hyder","stage":"stg02","repo":"copilot-business-layer","commitId":"73baa70c8abe670095a93b5f8265ee6ad77d1ad2","commitTime":"2021-08-05T18:31:04+00:00","apiName":"jobs","serviceName":null,"source":null,"branch":null,"tag":null,"status":"SUCCESS","client":"greatwall"}
{"deployedBy":"ajay@fabric.inc","stage":"stg02","repo":"copilot-business-layer","commitId":"73baa70c8abe670095a93b5f8265ee6ad77d1ad2","commitTime":"2021-08-05T18:31:04+00:00","apiName":"offers","serviceName":null,"source":"branch","branch":"master","tag":null,"status":"FAILED","client":"greatwall"}
{"deployedBy":"Safder Qasim","stage":"stg02","repo":"copilot-business-layer","commitId":"95b30b200f7d713538cb9b0485cbde2b66812374","commitTime":"2021-08-06T20:51:24+00:00","apiName":"xpm","serviceName":null,"source":null,"branch":null,"tag":null,"status":"FAILED","client":"greatwall"}
{"deployedBy":"Safder Qasim","stage":"stg02","repo":"copilot-business-layer","commitId":"194da94891127d371da80bef0a4cc50da25849d3","commitTime":"2021-08-06T22:12:57+00:00","apiName":"offers","serviceName":null,"source":null,"branch":null,"tag":null,"status":"SUCCESS","client":"greatwall"}
{"deployedBy":"ameed.khalid@fabric.inc","stage":"stg02","repo":"copilot-business-layer","commitId":"95b30b200f7d713538cb9b0485cbde2b66812374","commitTime":"2021-08-06T20:51:24+00:00","apiName":"xpm","serviceName":null,"source":"branch","branch":"master","tag":null,"status":"FAILED","client":"greatwall"}
{"deployedBy":"Safder Qasim","stage":"stg02","repo":"copilot-business-layer","commitId":"54d50805a8ce84107c452b4599644615e06d048f","commitTime":"2021-08-06T20:06:37+00:00","apiName":"offers","serviceName":null,"source":null,"branch":null,"tag":null,"status":"FAILED","client":"greatwall"}
{"deployedBy":"Safder Qasim","stage":"stg02","repo":"copilot-business-layer","commitId":"e57c40bf35f9d3d8cb399f80ca93f2882bff2beb","commitTime":"2021-08-06T19:20:36+00:00","apiName":"offers","serviceName":null,"source":null,"branch":null,"tag":null,"status":"SUCCESS","client":"greatwall"}
{"deployedBy":"ashwani@fabric.inc","stage":"stg02","repo":"copilot-business-layer","commitId":"e49376f28012050d7c64ba2ad93493de21b71522","commitTime":"2021-08-08T21:48:53+00:00","apiName":"xpm","serviceName":null,"source":"branch","branch":"master","tag":null,"status":"FAILED","client":"greatwall"}
